{
  "version": "2.0",
  "logging": {
    "applicationInsights": {
      "samplingExcludedTypes": "Request",
      "samplingSettings": {
        "isEnabled": true
      }
    }
  },
  "extensions": {
    "queues": {
      "batchSize": 3,
      "newBatchThreshold": 0
    }
  }
}